{
  "project_info": {
    "project_number": "1058958450265",
    "firebase_url": "https://cheerpark-76db8.firebaseio.com",
    "project_id": "cheerpark-76db8",
    "storage_bucket": "cheerpark-76db8.appspot.com"
  },
  "client": [
    {
      "client_info": {
        "mobilesdk_app_id": "1:1058958450265:android:7cc0331794d76909291b48",
        "android_client_info": {
          "package_name": "com.example.cheerpark"
        }
      },
      "oauth_client": [
        {
          "client_id": "1058958450265-1eaql8poa5bjt6t468fqplpve03cs03v.apps.googleusercontent.com",
          "client_type": 3
        }
      ],
      "api_key": [
        {
          "current_key": "AIzaSyBFCAEp2tmOB55LKCeQ7GWzJ9jVXIvxtJE"
        }
      ],
      "services": {
        "appinvite_service": {
          "other_platform_oauth_client": [
            {
              "client_id": "1058958450265-1eaql8poa5bjt6t468fqplpve03cs03v.apps.googleusercontent.com",
              "client_type": 3
            }
          ]
        }
      }
    }
  ],
  "configuration_version": "1"
}